@startuml

title __TACTICAL CHAOS's Class Diagram__\n

  namespace sample {
    namespace Controller {
      class sample.Controller.BattleArenaManager {
      }
    }
  }
  

  namespace sample {
    namespace Controller {
      class sample.Controller.BenchManager {
      }
    }
  }
  

  namespace sample {
    namespace Controller {
      namespace Filter {
        class sample.Controller.Filter.AcceptedClassesFilter {
        }
      }
    }
  }
  

  namespace sample {
    namespace Controller {
      namespace Filter {
        abstract class sample.Controller.Filter.Filter {
        }
      }
    }
  }
  

  namespace sample {
    namespace Controller {
      class sample.Controller.Game {
      }
    }
  }
  

  namespace sample {
    namespace Controller {
      class sample.Controller.MasterManager {
      }
    }
  }
  

  namespace sample {
    namespace Controller {
      class sample.Controller.StoreManager {
      }
    }
  }
  

  namespace sample {
    class sample.Main {
    }
  }
  

  namespace sample {
    namespace Model {
      class sample.Model.Ability {
      }
    }
  }
  

  namespace sample {
    namespace Model {
      class sample.Model.Champion {
      }
    }
  }
  

  namespace sample {
    namespace Model {
      namespace Enums {
        enum ChampionClass {
        }
      }
    }
  }
  

  namespace sample {
    namespace Model {
      namespace Enums {
        enum ChampionPlace {
        }
      }
    }
  }
  

  namespace sample {
    namespace Model {
      namespace Enums {
        enum ChampionStatus {
        }
      }
    }
  }
  

  namespace sample {
    namespace Model {
      namespace Enums {
        enum Direction {
        }
      }
    }
  }
  

  namespace sample {
    namespace Model {
      namespace OrderAttributes {
        class sample.Model.OrderAttributes.AbilityOrder {
        }
      }
    }
  }
  

  namespace sample {
    namespace Model {
      namespace OrderAttributes {
        class sample.Model.OrderAttributes.Attack {
        }
      }
    }
  }
  

  namespace sample {
    namespace Model {
      namespace OrderAttributes {
        abstract class sample.Model.OrderAttributes.Order {
        }
      }
    }
  }
  

  namespace sample {
    namespace Model {
      namespace OrderAttributes {
        class sample.Model.OrderAttributes.Walk {
        }
      }
    }
  }
  

  namespace sample {
    namespace Model {
      namespace PrimitiveModels {
        class sample.Model.PrimitiveModels.BattleArena {
        }
      }
    }
  }
  

  namespace sample {
    namespace Model {
      namespace PrimitiveModels {
        class sample.Model.PrimitiveModels.Bench {
        }
      }
    }
  }
  

  namespace sample {
    namespace Model {
      namespace PrimitiveModels {
        class sample.Model.PrimitiveModels.Square {
        }
      }
    }
  }
  

  namespace sample {
    namespace Model {
      namespace PrimitiveModels {
        class sample.Model.PrimitiveModels.Store {
        }
      }
    }
  }
  

  namespace sample {
    namespace Utilities {
      class sample.Utilities.Globals {
      }
    }
  }
  

  namespace sample {
    namespace View {
      class sample.View.BotPlayer {
      }
    }
  }
  

  namespace sample {
    namespace View {
      class sample.View.ConsolePlayer {
      }
    }
  }
  

  namespace sample {
    namespace View {
      class sample.View.GuiPLayer {
      }
    }
  }
  

  namespace sample {
    namespace View {
      abstract class sample.View.Player {
      }
    }
  }
  

  sample.Controller.BattleArenaManager o-- sample.Model.PrimitiveModels.BattleArena : arena
  sample.Controller.BenchManager o-- sample.Model.PrimitiveModels.Bench : bench
  sample.Controller.Filter.AcceptedClassesFilter -up-|> sample.Controller.Filter.Filter
  sample.Controller.Game o-- sample.Controller.MasterManager : masterManager
  sample.Controller.StoreManager o-- sample.Controller.Filter.Filter : filter
  sample.Controller.StoreManager o-- sample.Model.PrimitiveModels.Store : store
  sample.Model.Champion o-- sample.Model.Ability : ability
  sample.Model.Champion o-- sample.Model.Enums.ChampionPlace : place
  sample.Model.Champion o-- sample.Model.Enums.ChampionStatus : status
  sample.Model.OrderAttributes.AbilityOrder -up-|> sample.Model.OrderAttributes.Order
  sample.Model.OrderAttributes.Attack -up-|> sample.Model.OrderAttributes.Order
  sample.Model.OrderAttributes.Walk -up-|> sample.Model.OrderAttributes.Order
  sample.Model.OrderAttributes.Walk o-- sample.Model.Enums.Direction : direction
  sample.View.BotPlayer -up-|> sample.View.Player
  sample.View.ConsolePlayer -up-|> sample.View.Player
  sample.View.GuiPLayer -up-|> sample.View.Player
  sample.View.Player o-- sample.Controller.BattleArenaManager : battleArenaManager
  sample.View.Player o-- sample.Controller.BenchManager : benchManager
  sample.View.Player o-- sample.Controller.StoreManager : storeManager


right footer


PlantUML diagram generated by SketchIt! (https://bitbucket.org/pmesmeur/sketch.it)
For more information about this tool, please contact philippe.mesmeur@gmail.com
endfooter

@enduml
