@startuml

title __ORDERATTRIBUTES's Class Diagram__\n

  namespace sample {
    namespace Model {
      namespace OrderAttributes {
        class sample.Model.OrderAttributes.AbilityOrder {
            - attackedChampionId : int
            + AbilityOrder()
            + getAttackedChampionId()
            + setAttackedChampionId()
        }
      }
    }
  }
  

  namespace sample {
    namespace Model {
      namespace OrderAttributes {
        class sample.Model.OrderAttributes.Attack {
            - championDestinationId : int
            + Attack()
            + getChampionDestinationId()
            + setChampionDestinationId()
        }
      }
    }
  }
  

  namespace sample {
    namespace Model {
      namespace OrderAttributes {
        abstract class sample.Model.OrderAttributes.Order {
            # championId : int
            + getChampionId()
            + setChampionId()
        }
      }
    }
  }
  

  namespace sample {
    namespace Model {
      namespace OrderAttributes {
        class sample.Model.OrderAttributes.Walk {
            - movementSpeed : int
            + Walk()
            + getChampionId()
            + getDirection()
            + getMovementSpeed()
            + setChampionId()
            + setDirection()
            + setMovementSpeed()
        }
      }
    }
  }
  

  sample.Model.OrderAttributes.AbilityOrder -up-|> sample.Model.OrderAttributes.Order
  sample.Model.OrderAttributes.Attack -up-|> sample.Model.OrderAttributes.Order
  sample.Model.OrderAttributes.Walk -up-|> sample.Model.OrderAttributes.Order
  sample.Model.OrderAttributes.Walk o-- sample.Model.Enums.Direction : direction


right footer


PlantUML diagram generated by SketchIt! (https://bitbucket.org/pmesmeur/sketch.it)
For more information about this tool, please contact philippe.mesmeur@gmail.com
endfooter

@enduml
